asgiref==3.5.2
certifi==2022.6.15
charset-normalizer==2.1.0
coreapi==2.3.3
coreschema==0.0.4
Django==3.2
django-cors-headers==3.13.0
django-parler==2.3
django-parler-rest==2.2
django-rosetta==0.8.1
djangorestframework==3.13.1
drf-yasg==1.21.3
idna==3.3
inflection==0.5.1
itypes==1.2.0
Jinja2==3.1.2
MarkupSafe==2.1.1
microsofttranslator==0.8
packaging==21.3
Pillow==9.2.0
polib==1.1.1
pyparsing==3.0.9
pytz==2022.1
requests==2.28.1
ruamel.yaml==0.17.21
ruamel.yaml.clib==0.2.6
six==1.16.0
sqlparse==0.4.2
uritemplate==4.1.1
urllib3==1.26.10
